######################################################################
## PARAM_CARD AUTOMATICALY GENERATED BY THE UFO  #####################
######################################################################

###################################
### INFORMATION FOR LOOP
####################################
Block LOOP
  666 1.000000e+03 # MU_R

###################################
## INFORMATION FOR TECHNICAL
###################################
Block TECHNICAL
    1 1.0000000e+00 # epsUV
    2 1.0000000e+00 # epsIR
    3 1.0000000e+00 # LogSwitch
    4 1.0000000e+00 # GfRedefinitionChoice 

###################################
## INFORMATION FOR SMINPUTS
###################################
Block SMINPUTS
    2 1.16639000e-05 # Gf
    3 1.180000e-01 # aS 

###################################
## INFORMATION FOR MASS
###################################
Block MASS
    1 0.000000e+00 # MD
    2 0.000000e+00 # MU
    3 0.000000e+00 # MS
    4 0.000000e+00 # MC 
    5 4.700000e+00 # MB 
    6 1.743000e+02 # MT 
   11 0.000000e+00 # Me 
   13 0.000000e+00 # MM 
   15 1.777000e+00 # MTA 
   23 9.118800e+01 # MZ 
   24 8.041900e+01 # MW
   25 1.200000e+02 # MH 

###################################
## INFORMATION FOR DECAY
###################################
DECAY   6 1.491500E+00 # WT
DECAY  15 0.000000e+00
DECAY  23 2.441404e+00 # WZ
DECAY  24 2.047600e+00 # WW
DECAY  25 5.753088e-03 # WH

###################################
## INFORMATION FOR WOLFENSTEIN
###################################
Block Wolfenstein 
    1 2.253000e-01 # lamWS 
    2 8.080000e-01 # AWS 
    3 1.320000e-01 # rhoWS 
    4 3.410000e-01 # etaWS 

###################################
## INFORMATION FOR YUKAWA
###################################
Block YUKAWA
    1 0.00000e+00  # ymdo
    2 0.00000e+00  # ymup
    3 0.00000e+00  # yms
    4 0.000000e+00 # ymc 
    5 4.200000e+00 # ymb 
    6 1.743000e+02 # ymt 
   11 0.000000e+00 # yme 
   13 0.000000e+00 # ymm 
   15 1.777000e+00 # ymtau 
